{
  "project_info": {
    "project_number": "212441567854",
    "firebase_url": "https://discinegenerator.firebaseio.com",
    "project_id": "discinegenerator",
    "storage_bucket": "discinegenerator.appspot.com"
  },
  "client": [
    {
      "client_info": {
        "mobilesdk_app_id": "1:212441567854:android:fd8299eb709558d0",
        "android_client_info": {
          "package_name": "com.sgv.discinegenerator"
        }
      },
      "oauth_client": [
        {
          "client_id": "212441567854-ra6e93t9pd7fq2am6dg6r4hfamd3akr9.apps.googleusercontent.com",
          "client_type": 1,
          "android_info": {
            "package_name": "com.sgv.discinegenerator",
            "certificate_hash": "117b276c1bd5a65a701f33b4bc6d62ae7a4a793f"
          }
        },
        {
          "client_id": "212441567854-j50pu2dp32ebi3p8i85rcemjn3p43ehm.apps.googleusercontent.com",
          "client_type": 3
        }
      ],
      "api_key": [
        {
          "current_key": "AIzaSyA-9z9JxLPC1GrW5KcX4pMlHyg8BhVeQWo"
        }
      ],
      "services": {
        "appinvite_service": {
          "other_platform_oauth_client": [
            {
              "client_id": "212441567854-j50pu2dp32ebi3p8i85rcemjn3p43ehm.apps.googleusercontent.com",
              "client_type": 3
            }
          ]
        }
      }
    }
  ],
  "configuration_version": "1"
}